<?xml version="1.0" encoding="UTF-8" standalone="no"?>
<svg
   xmlns:dc="http://purl.org/dc/elements/1.1/"
   xmlns:cc="http://creativecommons.org/ns#"
   xmlns:rdf="http://www.w3.org/1999/02/22-rdf-syntax-ns#"
   xmlns:svg="http://www.w3.org/2000/svg"
   xmlns="http://www.w3.org/2000/svg"
   xmlns:sodipodi="http://sodipodi.sourceforge.net/DTD/sodipodi-0.dtd"
   xmlns:inkscape="http://www.inkscape.org/namespaces/inkscape"
   viewBox="0 0 433.95316 457.95578"
   height="457.95578"
   width="433.95316"
   id="svg2"
   version="1.1"
   sodipodi:docname="emberlightlogo.svg"
   inkscape:version="0.92.4 (f8dce91, 2019-08-02)">
  <sodipodi:namedview
     pagecolor="#ffffff"
     bordercolor="#666666"
     borderopacity="1"
     objecttolerance="10"
     gridtolerance="10"
     guidetolerance="10"
     inkscape:pageopacity="0"
     inkscape:pageshadow="2"
     inkscape:window-width="960"
     inkscape:window-height="1025"
     id="namedview13"
     showgrid="false"
     inkscape:zoom="1.0183287"
     inkscape:cx="219.22326"
     inkscape:cy="210.85257"
     inkscape:window-x="0"
     inkscape:window-y="27"
     inkscape:window-maximized="0"
     inkscape:current-layer="svg2" />
  <metadata
     id="metadata8">
    <rdf:RDF>
      <cc:Work
         rdf:about="">
        <dc:format>image/svg+xml</dc:format>
        <dc:type
           rdf:resource="http://purl.org/dc/dcmitype/StillImage" />
        <dc:title />
      </cc:Work>
    </rdf:RDF>
  </metadata>
  <defs
     id="defs6" />
  <g
     id="layer1"
     transform="translate(-10.276739,-1.3967983)">
    <path
       id="path12"
       d="m 194.42827,2.1522241 c 0,0 -344.45983,254.5140559 -89.88206,456.6998959 l 235.06829,-0.61216 c 59.64762,-17.42995 125.46593,-108.4539 97.46612,-175.87954 l -20.98626,-42.12106 c -10.22039,-23.95572 -45.76519,22.81989 -34.27707,45.29433 l 9.76904,18.6941 c 12.82454,28.12847 -32.22371,102.54747 -75.88947,102.04035 l -187.78365,0.86573 c -140.376004,-147.0047 51.06259,-305.948 51.06259,-305.948 l 37.01374,73.9352 c 13.60971,13.90207 57.44091,-8.52914 52.01533,-25.97689 z"
       style="fill:#000000;stroke:#000000;stroke-width:1px;stroke-linecap:butt;stroke-linejoin:miter;stroke-opacity:1"
       inkscape:connector-curvature="0" />
    <rect
       y="121.1356"
       x="239.35339"
       height="115.08553"
       width="115.08552"
       id="rect52"
       style="opacity:0;fill:#000000;fill-opacity:0.04313725;fill-rule:nonzero;stroke:#ffffff;stroke-width:0;stroke-miterlimit:4;stroke-dasharray:none;stroke-opacity:1;paint-order:stroke markers fill" />
    <rect
       y="86.242645"
       x="284.04086"
       height="122.4314"
       width="101.61806"
       id="rect54"
       style="opacity:0;fill:#000000;fill-opacity:0.04313725;fill-rule:nonzero;stroke:#ffffff;stroke-width:0;stroke-miterlimit:4;stroke-dasharray:none;stroke-opacity:1;paint-order:stroke markers fill" />
    <rect
       y="17.068901"
       x="283.42871"
       height="145.08122"
       width="154.26355"
       id="rect56"
       style="opacity:0;fill:#000000;fill-opacity:0.04313725;fill-rule:nonzero;stroke:#ffffff;stroke-width:0;stroke-miterlimit:4;stroke-dasharray:none;stroke-opacity:1;paint-order:stroke markers fill" />
    <path
       id="path909"
       d="M 172.62828,210.51052 362.39696,122.97207"
       style="fill:none;stroke:#000000;stroke-width:50.90000153;stroke-linecap:butt;stroke-linejoin:miter;stroke-miterlimit:4;stroke-dasharray:none;stroke-opacity:1"
       inkscape:connector-curvature="0" />
    <path
       id="path909-7"
       d="M 146.91768,295.90641 392.39265,183.88169"
       style="fill:none;stroke:#000000;stroke-width:51;stroke-linecap:butt;stroke-linejoin:miter;stroke-miterlimit:4;stroke-dasharray:none;stroke-opacity:1"
       inkscape:connector-curvature="0" />
    <path
       id="path909-7-5"
       d="M 175.68906,357.73427 419.93972,246.32171"
       style="fill:none;stroke:#000000;stroke-width:50;stroke-linecap:butt;stroke-linejoin:miter;stroke-miterlimit:4;stroke-dasharray:none;stroke-opacity:1"
       inkscape:connector-curvature="0" />
  </g>
</svg>
