<?xml version="1.0" encoding="UTF-8" standalone="no"?>
<!-- Created with Inkscape (http://www.inkscape.org/) -->

<svg
   xmlns:osb="http://www.openswatchbook.org/uri/2009/osb"
   xmlns:dc="http://purl.org/dc/elements/1.1/"
   xmlns:cc="http://creativecommons.org/ns#"
   xmlns:rdf="http://www.w3.org/1999/02/22-rdf-syntax-ns#"
   xmlns:svg="http://www.w3.org/2000/svg"
   xmlns="http://www.w3.org/2000/svg"
   xmlns:sodipodi="http://sodipodi.sourceforge.net/DTD/sodipodi-0.dtd"
   xmlns:inkscape="http://www.inkscape.org/namespaces/inkscape"
   width="111mm"
   height="111mm"
   viewBox="0 0 111 110.99998"
   version="1.1"
   id="svg8"
   inkscape:version="0.92.4 (f8dce91, 2019-08-02)"
   sodipodi:docname="blackbox.svg.2019_09_07_23_56_44.0.svg"
   style="enable-background:new">
  <defs
     id="defs2">
    <linearGradient
       id="linearGradient6092"
       osb:paint="solid">
      <stop
         style="stop-color:#000000;stop-opacity:1;"
         offset="0"
         id="stop6090" />
    </linearGradient>
    <inkscape:perspective
       sodipodi:type="inkscape:persp3d"
       inkscape:vp_x="53.491646 : 217.39132 : 1"
       inkscape:vp_y="855.16882 : 203.51888 : 0"
       inkscape:vp_z="57.782455 : 116.88266 : 1"
       inkscape:persp3d-origin="36.486828 : 127.07359 : 1"
       id="perspective3713" />
    <filter
       inkscape:collect="always"
       style="color-interpolation-filters:sRGB"
       id="filter8515"
       x="-0.38745612"
       width="1.7749124"
       y="-0.33617759"
       height="1.6723552">
      <feGaussianBlur
         inkscape:collect="always"
         stdDeviation="13.11982"
         id="feGaussianBlur8517" />
    </filter>
    <clipPath
       clipPathUnits="userSpaceOnUse"
       id="clipPath115">
      <g
         inkscape:label="Clip"
         id="use117">
        <path
           sodipodi:nodetypes="ccccc"
           inkscape:connector-curvature="0"
           id="path130"
           d="M 152.17924,108.21863 111.54552,131.51899 71.064268,107.95454 111.69799,84.670718 Z"
           style="fill:#000000;fill-opacity:1;stroke:#000000;stroke-width:0.30000001;stroke-linejoin:round;stroke-miterlimit:4;stroke-dasharray:none;stroke-opacity:1" />
        <g
           style="filter:url(#filter8515)"
           id="g142"
           transform="matrix(0.83974747,0,0,0.83974747,34.867887,68.795686)">
          <g
             id="g132"
             style="fill:#000000;fill-opacity:1;stroke:#000000;stroke-width:0.5;stroke-miterlimit:4;stroke-dasharray:none;stroke-opacity:1" />
          <g
             style="fill:#fffffe;fill-opacity:1;stroke:#ffffff;stroke-width:0.11591251;stroke-miterlimit:4;stroke-dasharray:none;stroke-opacity:1"
             id="g140">
            <path
               transform="translate(-1.0383829e-6)"
               style="fill:#fffffe;fill-opacity:1;stroke:#ffffff;stroke-width:0.11591251;stroke-miterlimit:4;stroke-dasharray:none;stroke-opacity:1"
               d="M 91.128781,119.72967 91.281249,72.914451 131.91497,49.614086 131.7625,96.445835 Z"
               id="path134"
               inkscape:connector-curvature="0"
               sodipodi:nodetypes="ccccc" />
            <path
               transform="translate(-1.0383829e-6)"
               style="fill:#fffffe;fill-opacity:1;stroke:#ffffff;stroke-width:0.11591251;stroke-miterlimit:4;stroke-dasharray:none;stroke-opacity:1"
               d="M 91.12878,119.72967 50.647531,96.181751 50.8,49.350002 91.281249,72.914451 Z"
               id="path136"
               inkscape:connector-curvature="0"
               sodipodi:nodetypes="ccccc" />
            <path
               sodipodi:nodetypes="ccccc"
               inkscape:connector-curvature="0"
               id="path138"
               d="M 131.91497,49.614089 91.281249,72.914451 50.799999,49.350004 91.43372,26.06618 Z"
               style="fill:#fffffe;fill-opacity:1;stroke:#ffffff;stroke-width:0.11591251;stroke-miterlimit:4;stroke-dasharray:none;stroke-opacity:1" />
          </g>
        </g>
        <path
           sodipodi:nodetypes="ccccc"
           inkscape:connector-curvature="0"
           id="path144"
           d="m 111.39305,178.33421 -40.481251,-23.54792 0.152469,-46.83175 40.481252,23.56445 c 40.63372,-23.30036 40.48125,23.53138 -0.15247,46.81522 z"
           style="fill:#000000;fill-opacity:1;stroke:#000000;stroke-width:0;stroke-linejoin:round;stroke-miterlimit:4;stroke-dasharray:none;stroke-opacity:1" />
        <path
           sodipodi:nodetypes="ccccc"
           inkscape:connector-curvature="0"
           id="path146"
           d="m 111.39305,178.33421 0.15247,-46.81522 40.63372,-23.30036 -0.15247,46.83174 z"
           style="fill:#000000;fill-opacity:1;stroke:#000000;stroke-width:0;stroke-linejoin:round;stroke-miterlimit:4;stroke-dasharray:none;stroke-opacity:1" />
        <path
           sodipodi:nodetypes="ccccc"
           inkscape:connector-curvature="0"
           id="path148"
           d="M 152.17924,80.172775 111.54552,103.47314 71.064267,79.90869 111.69799,56.624866 Z"
           style="fill:#000000;fill-opacity:1;stroke:#000000;stroke-width:0.30000001;stroke-linejoin:round;stroke-miterlimit:4;stroke-dasharray:none;stroke-opacity:1" />
      </g>
    </clipPath>
    <filter
       inkscape:label="Cracked Lava"
       inkscape:menu="Materials"
       inkscape:menu-tooltip="A volcanic texture, a little like leather"
       style="color-interpolation-filters:sRGB"
       id="filter2169">
      <feGaussianBlur
         result="result0"
         in="SourceGraphic"
         stdDeviation="0.5"
         id="feGaussianBlur2137" />
      <feTurbulence
         baseFrequency="0.042"
         seed="488"
         numOctaves="7"
         result="result1"
         id="feTurbulence2139" />
      <feDisplacementMap
         result="result5"
         xChannelSelector="R"
         scale="0"
         in2="result1"
         in="result1"
         yChannelSelector="G"
         id="feDisplacementMap2141" />
      <feComposite
         result="result2"
         operator="in"
         in2="result5"
         in="result0"
         id="feComposite2143" />
      <feSpecularLighting
         lighting-color="#ffe688"
         surfaceScale="2"
         result="result4"
         specularConstant="2"
         specularExponent="65"
         in="result2"
         id="feSpecularLighting2147">
        <feDistantLight
           elevation="62"
           azimuth="225"
           id="feDistantLight2145" />
      </feSpecularLighting>
      <feComposite
         k1="2.5"
         k3="1"
         k2="-0.5"
         in2="result2"
         in="result4"
         operator="arithmetic"
         result="result91"
         id="feComposite2149"
         k4="0" />
      <feBlend
         result="fbSourceGraphic"
         mode="multiply"
         in2="result91"
         id="feBlend2151" />
      <feColorMatrix
         values="1 0 0 -1 0 1 0 1 -1 0 1 0 0 -1 0 -2 -0.5 0 5 -2"
         in="fbSourceGraphic"
         result="fbSourceGraphicAlpha"
         id="feColorMatrix2153" />
      <feGaussianBlur
         stdDeviation="8"
         in="fbSourceGraphicAlpha"
         result="result0"
         id="feGaussianBlur2155" />
      <feOffset
         dx="2"
         dy="2"
         in="result0"
         result="result3"
         id="feOffset2157" />
      <feSpecularLighting
         in="result0"
         result="result1"
         lighting-color="#ffffff"
         surfaceScale="4"
         specularConstant="0.80000001"
         specularExponent="15"
         id="feSpecularLighting2161">
        <fePointLight
           x="-5000"
           y="-10000"
           z="20000"
           id="fePointLight2159" />
      </feSpecularLighting>
      <feComposite
         in2="fbSourceGraphicAlpha"
         in="result1"
         result="result2"
         operator="in"
         id="feComposite2163" />
      <feComposite
         in="fbSourceGraphic"
         result="result4"
         operator="arithmetic"
         k2="2"
         k3="2"
         in2="result2"
         id="feComposite2165"
         k1="0"
         k4="0" />
      <feBlend
         mode="darken"
         in2="result4"
         id="feBlend2167"
         result="fbSourceGraphic" />
      <feColorMatrix
         result="fbSourceGraphicAlpha"
         in="fbSourceGraphic"
         values="0 0 0 -1 0 0 0 0 -1 0 0 0 0 -1 0 0 0 0 1 0"
         id="feColorMatrix2201" />
      <feGaussianBlur
         id="feGaussianBlur2203"
         result="result0"
         in="fbSourceGraphic"
         stdDeviation="0.5" />
      <feTurbulence
         id="feTurbulence2205"
         baseFrequency="0.042"
         seed="488"
         numOctaves="7"
         result="result1" />
      <feDisplacementMap
         in2="result1"
         id="feDisplacementMap2207"
         result="result5"
         xChannelSelector="R"
         scale="0"
         in="result1"
         yChannelSelector="G" />
      <feComposite
         in2="result5"
         id="feComposite2209"
         result="result2"
         operator="in"
         in="result0" />
      <feSpecularLighting
         id="feSpecularLighting2211"
         lighting-color="#ffe688"
         surfaceScale="2"
         result="result4"
         specularConstant="2"
         specularExponent="65"
         in="result2">
        <feDistantLight
           id="feDistantLight2213"
           elevation="62"
           azimuth="225" />
      </feSpecularLighting>
      <feComposite
         in2="result2"
         id="feComposite2215"
         k1="2.5"
         k3="1"
         k2="-0.5"
         in="result4"
         operator="arithmetic"
         result="result91"
         k4="0" />
      <feBlend
         in2="result91"
         id="feBlend2217"
         result="fbSourceGraphic"
         mode="multiply" />
      <feColorMatrix
         id="feColorMatrix2219"
         values="1 0 0 -1 0 1 0 1 -1 0 1 0 0 -1 0 -2 -0.5 0 5 -2"
         in="fbSourceGraphic"
         result="fbSourceGraphicAlpha" />
      <feGaussianBlur
         id="feGaussianBlur2221"
         stdDeviation="8"
         in="fbSourceGraphicAlpha"
         result="result0" />
      <feOffset
         id="feOffset2223"
         dx="2"
         dy="2"
         in="result0"
         result="result3" />
      <feSpecularLighting
         id="feSpecularLighting2225"
         in="result0"
         result="result1"
         lighting-color="#ffffff"
         surfaceScale="4"
         specularConstant="0.80000001"
         specularExponent="15">
        <fePointLight
           id="fePointLight2227"
           x="-5000"
           y="-10000"
           z="20000" />
      </feSpecularLighting>
      <feComposite
         in2="fbSourceGraphicAlpha"
         id="feComposite2229"
         in="result1"
         result="result2"
         operator="in" />
      <feComposite
         in2="result2"
         id="feComposite2231"
         in="fbSourceGraphic"
         result="result4"
         operator="arithmetic"
         k2="2"
         k3="2"
         k1="0"
         k4="0" />
      <feBlend
         in2="result4"
         id="feBlend2233"
         mode="darken" />
    </filter>
    <filter
       inkscape:collect="always"
       style="color-interpolation-filters:sRGB"
       id="filter2587"
       x="-0.028395973"
       width="1.0567919"
       y="-0.049165912"
       height="1.0983318">
      <feGaussianBlur
         inkscape:collect="always"
         stdDeviation="0.95972439"
         id="feGaussianBlur2589" />
    </filter>
    <filter
       inkscape:label="Cracked Lava"
       inkscape:menu="Materials"
       inkscape:menu-tooltip="A volcanic texture, a little like leather"
       style="color-interpolation-filters:sRGB"
       id="filter2169-1">
      <feGaussianBlur
         result="result0"
         in="SourceGraphic"
         stdDeviation="0.5"
         id="feGaussianBlur2137-9" />
      <feTurbulence
         baseFrequency="0.042"
         seed="488"
         numOctaves="7"
         result="result1"
         id="feTurbulence2139-4" />
      <feDisplacementMap
         result="result5"
         xChannelSelector="R"
         scale="0"
         in2="result1"
         in="result1"
         yChannelSelector="G"
         id="feDisplacementMap2141-7" />
      <feComposite
         result="result2"
         operator="in"
         in2="result5"
         in="result0"
         id="feComposite2143-8" />
      <feSpecularLighting
         lighting-color="#ffe688"
         surfaceScale="2"
         result="result4"
         specularConstant="2"
         specularExponent="65"
         in="result2"
         id="feSpecularLighting2147-4">
        <feDistantLight
           elevation="62"
           azimuth="225"
           id="feDistantLight2145-5" />
      </feSpecularLighting>
      <feComposite
         k4="0"
         k1="2.5"
         k3="1"
         k2="-0.5"
         in2="result2"
         in="result4"
         operator="arithmetic"
         result="result91"
         id="feComposite2149-0" />
      <feBlend
         result="fbSourceGraphic"
         mode="multiply"
         in2="result91"
         id="feBlend2151-3" />
      <feColorMatrix
         values="1 0 0 -1 0 1 0 1 -1 0 1 0 0 -1 0 -2 -0.5 0 5 -2"
         in="fbSourceGraphic"
         result="fbSourceGraphicAlpha"
         id="feColorMatrix2153-6" />
      <feGaussianBlur
         stdDeviation="8"
         in="fbSourceGraphicAlpha"
         result="result0"
         id="feGaussianBlur2155-1" />
      <feOffset
         dx="2"
         dy="2"
         in="result0"
         result="result3"
         id="feOffset2157-0" />
      <feSpecularLighting
         in="result0"
         result="result1"
         lighting-color="#ffffff"
         surfaceScale="4"
         specularConstant="0.80000001"
         specularExponent="15"
         id="feSpecularLighting2161-6">
        <fePointLight
           x="-5000"
           y="-10000"
           z="20000"
           id="fePointLight2159-3" />
      </feSpecularLighting>
      <feComposite
         in2="fbSourceGraphicAlpha"
         in="result1"
         result="result2"
         operator="in"
         id="feComposite2163-2" />
      <feComposite
         k4="0"
         k1="0"
         in="fbSourceGraphic"
         result="result4"
         operator="arithmetic"
         k2="2"
         k3="2"
         in2="result2"
         id="feComposite2165-0" />
      <feBlend
         mode="darken"
         in2="result4"
         id="feBlend2167-6"
         result="fbSourceGraphic" />
      <feColorMatrix
         result="fbSourceGraphicAlpha"
         in="fbSourceGraphic"
         values="0 0 0 -1 0 0 0 0 -1 0 0 0 0 -1 0 0 0 0 1 0"
         id="feColorMatrix2201-1" />
      <feGaussianBlur
         id="feGaussianBlur2203-5"
         result="result0"
         in="fbSourceGraphic"
         stdDeviation="0.5" />
      <feTurbulence
         id="feTurbulence2205-5"
         baseFrequency="0.042"
         seed="488"
         numOctaves="7"
         result="result1" />
      <feDisplacementMap
         in2="result1"
         id="feDisplacementMap2207-4"
         result="result5"
         xChannelSelector="R"
         scale="0"
         in="result1"
         yChannelSelector="G" />
      <feComposite
         in2="result5"
         id="feComposite2209-7"
         result="result2"
         operator="in"
         in="result0" />
      <feSpecularLighting
         id="feSpecularLighting2211-6"
         lighting-color="#ffe688"
         surfaceScale="2"
         result="result4"
         specularConstant="2"
         specularExponent="65"
         in="result2">
        <feDistantLight
           id="feDistantLight2213-5"
           elevation="62"
           azimuth="225" />
      </feSpecularLighting>
      <feComposite
         k4="0"
         in2="result2"
         id="feComposite2215-6"
         k1="2.5"
         k3="1"
         k2="-0.5"
         in="result4"
         operator="arithmetic"
         result="result91" />
      <feBlend
         in2="result91"
         id="feBlend2217-9"
         result="fbSourceGraphic"
         mode="multiply" />
      <feColorMatrix
         id="feColorMatrix2219-3"
         values="1 0 0 -1 0 1 0 1 -1 0 1 0 0 -1 0 -2 -0.5 0 5 -2"
         in="fbSourceGraphic"
         result="fbSourceGraphicAlpha" />
      <feGaussianBlur
         id="feGaussianBlur2221-7"
         stdDeviation="8"
         in="fbSourceGraphicAlpha"
         result="result0" />
      <feOffset
         id="feOffset2223-4"
         dx="2"
         dy="2"
         in="result0"
         result="result3" />
      <feSpecularLighting
         id="feSpecularLighting2225-5"
         in="result0"
         result="result1"
         lighting-color="#ffffff"
         surfaceScale="4"
         specularConstant="0.80000001"
         specularExponent="15">
        <fePointLight
           id="fePointLight2227-2"
           x="-5000"
           y="-10000"
           z="20000" />
      </feSpecularLighting>
      <feComposite
         in2="fbSourceGraphicAlpha"
         id="feComposite2229-5"
         in="result1"
         result="result2"
         operator="in" />
      <feComposite
         k4="0"
         k1="0"
         in2="result2"
         id="feComposite2231-4"
         in="fbSourceGraphic"
         result="result4"
         operator="arithmetic"
         k2="2"
         k3="2" />
      <feBlend
         in2="result4"
         id="feBlend2233-7"
         mode="darken" />
    </filter>
    <filter
       inkscape:collect="always"
       style="color-interpolation-filters:sRGB"
       id="filter7142"
       x="-0.29209206"
       width="1.5841841"
       y="-0.55126739"
       height="2.1025348">
      <feGaussianBlur
         inkscape:collect="always"
         stdDeviation="8.6986437"
         id="feGaussianBlur7144" />
    </filter>
    <filter
       inkscape:collect="always"
       style="color-interpolation-filters:sRGB"
       id="filter7500"
       x="-0.20863718"
       width="1.4172744"
       y="-0.39376241"
       height="1.7875248">
      <feGaussianBlur
         inkscape:collect="always"
         stdDeviation="6.213317"
         id="feGaussianBlur7502" />
    </filter>
  </defs>
  <sodipodi:namedview
     id="base"
     pagecolor="#ffffff"
     bordercolor="#666666"
     borderopacity="1.0"
     inkscape:pageopacity="0.0"
     inkscape:pageshadow="2"
     inkscape:zoom="1.4142136"
     inkscape:cx="260.84776"
     inkscape:cy="155.98133"
     inkscape:document-units="mm"
     inkscape:current-layer="layer5"
     showgrid="false"
     inkscape:window-width="1920"
     inkscape:window-height="1025"
     inkscape:window-x="0"
     inkscape:window-y="27"
     inkscape:window-maximized="1"
     inkscape:snap-page="true"
     inkscape:snap-text-baseline="false"
     inkscape:pagecheckerboard="true"
     fit-margin-top="0"
     fit-margin-right="-50"
     fit-margin-left="-50"
     fit-margin-bottom="0" />
  <metadata
     id="metadata5">
    <rdf:RDF>
      <cc:Work
         rdf:about="">
        <dc:format>image/svg+xml</dc:format>
        <dc:type
           rdf:resource="http://purl.org/dc/dcmitype/StillImage" />
        <dc:title></dc:title>
      </cc:Work>
    </rdf:RDF>
  </metadata>
  <g
     inkscape:groupmode="layer"
     id="layer8"
     inkscape:label="Layer 6"
     transform="translate(-6.4440882,-55.734718)" />
  <g
     inkscape:groupmode="layer"
     id="layer7"
     inkscape:label="Layer 5"
     style="display:inline"
     transform="translate(-6.4440882,-55.734718)" />
  <g
     inkscape:groupmode="layer"
     id="layer4"
     inkscape:label="Layer 4"
     style="display:inline"
     transform="translate(-6.4440882,-55.734718)" />
  <g
     inkscape:groupmode="layer"
     id="layer3"
     inkscape:label="Layer 3"
     style="display:inline"
     transform="translate(-6.4440882,-55.734718)" />
  <g
     inkscape:groupmode="layer"
     id="layer2"
     inkscape:label="Layer 2"
     style="display:inline"
     transform="translate(-6.4440882,-55.734718)" />
  <g
     inkscape:label="Layer 1"
     inkscape:groupmode="layer"
     id="layer1"
     style="display:inline"
     transform="translate(-6.4440882,-55.734718)" />
  <g
     inkscape:groupmode="layer"
     id="layer5"
     inkscape:label="Layer 0"
     style="display:inline"
     transform="translate(-6.4440882,-55.734718)">
    <g
       id="g7556"
       transform="translate(0.01668997)">
      <path
         style="display:inline;fill:#000000;fill-opacity:1;stroke:#000000;stroke-width:0.07929563;stroke-linejoin:round;stroke-miterlimit:4;stroke-dasharray:none;stroke-opacity:1;enable-background:new"
         d="M 102.96577,96.619132 62.332073,119.91949 21.850821,96.355042 62.484543,73.07122 Z"
         id="path6132-6-5"
         inkscape:connector-curvature="0"
         sodipodi:nodetypes="ccccc" />
      <path
         transform="matrix(1.2790917,-0.29492437,1.2854486,0.29570775,-176.27366,91.608104)"
         d="M 92.974877,126.46265 59.860183,92.973779 93.349052,59.859084 126.46375,93.347953 Z"
         inkscape:randomized="0"
         inkscape:rounded="0"
         inkscape:flatsided="true"
         sodipodi:arg2="2.3618124"
         sodipodi:arg1="1.5764142"
         sodipodi:r2="23.548288"
         sodipodi:r1="33.302307"
         sodipodi:cy="93.160866"
         sodipodi:cx="93.161964"
         sodipodi:sides="4"
         id="path6848"
         style="display:inline;fill:#ffffff;fill-opacity:1;stroke:#ffffff;stroke-width:0;stroke-miterlimit:4;stroke-dasharray:none;stroke-opacity:1;paint-order:stroke markers fill;filter:url(#filter7500);enable-background:new"
         sodipodi:type="star" />
      <path
         style="display:inline;fill:#000000;fill-opacity:1;stroke:#000000;stroke-width:0.07929563;stroke-linejoin:round;stroke-miterlimit:4;stroke-dasharray:none;stroke-opacity:1;filter:url(#filter2587);enable-background:new"
         d="M 102.9169,103.16228 62.283206,126.46265 21.801952,102.89819 62.435675,79.614364 Z"
         id="path6132-6-3"
         inkscape:connector-curvature="0"
         sodipodi:nodetypes="ccccc" />
      <g
         transform="matrix(0.83974747,0,0,0.83974747,-14.345559,57.196188)"
         id="g6561-3"
         style="display:inline;filter:url(#filter2169);enable-background:new">
        <g
           style="fill:#000000;fill-opacity:1;stroke:#000000;stroke-width:0.5;stroke-miterlimit:4;stroke-dasharray:none;stroke-opacity:1"
           id="g6176-5" />
        <g
           id="g6616"
           style="fill:#fffffe;fill-opacity:1;stroke:#ffffff;stroke-width:0.11591251;stroke-miterlimit:4;stroke-dasharray:none;stroke-opacity:1">
          <path
             sodipodi:nodetypes="ccccc"
             inkscape:connector-curvature="0"
             id="path6132-3-6"
             d="M 91.128781,119.72967 91.281249,72.914451 131.91497,49.614086 131.7625,96.445835 Z"
             style="fill:#fffffe;fill-opacity:1;stroke:#ffffff;stroke-width:0.11591251;stroke-miterlimit:4;stroke-dasharray:none;stroke-opacity:1"
             transform="translate(-1.0383829e-6)" />
          <path
             sodipodi:nodetypes="ccccc"
             inkscape:connector-curvature="0"
             id="path6132-2"
             d="M 91.12878,119.72967 50.647531,96.181751 50.8,49.350002 91.281249,72.914451 Z"
             style="fill:#fffffe;fill-opacity:1;stroke:#ffffff;stroke-width:0.11591251;stroke-miterlimit:4;stroke-dasharray:none;stroke-opacity:1"
             transform="translate(-1.0383829e-6)" />
          <path
             style="fill:#fffffe;fill-opacity:1;stroke:#ffffff;stroke-width:0.11591251;stroke-miterlimit:4;stroke-dasharray:none;stroke-opacity:1"
             d="M 131.91497,49.614089 91.281249,72.914451 50.799999,49.350004 91.43372,26.06618 Z"
             id="path6132-6-5-9"
             inkscape:connector-curvature="0"
             sodipodi:nodetypes="ccccc" />
        </g>
      </g>
      <path
         style="display:inline;fill:#000000;fill-opacity:1;stroke:#000000;stroke-width:0;stroke-linejoin:round;stroke-miterlimit:4;stroke-dasharray:none;stroke-opacity:1;enable-background:new"
         d="M 62.179603,166.73471 21.698352,143.18679 21.850821,96.355042 62.332073,119.91949 c 40.633697,-23.300358 40.481227,23.53138 -0.15247,46.81522 z"
         id="path6132"
         inkscape:connector-curvature="0"
         sodipodi:nodetypes="ccccc" />
      <path
         style="fill:#000000;fill-opacity:1;stroke:#000000;stroke-width:0.07929563;stroke-linejoin:round;stroke-miterlimit:4;stroke-dasharray:none;stroke-opacity:1"
         d="M 102.96577,80.214951 62.332073,103.51533 21.85082,79.950866 62.484543,56.667042 Z"
         id="path6132-6"
         inkscape:connector-curvature="0"
         sodipodi:nodetypes="ccccc" />
      <path
         style="fill:#000000;fill-opacity:1;stroke:#000000;stroke-width:0;stroke-linejoin:round;stroke-miterlimit:4;stroke-dasharray:none;stroke-opacity:1"
         d="m 62.179603,166.73471 0.15247,-46.81522 40.633697,-23.300358 -0.15247,46.831738 z"
         id="path6132-3"
         inkscape:connector-curvature="0"
         sodipodi:nodetypes="ccccc" />
    </g>
  </g>
</svg>
